^\\APPSDATA3.FVTC.EDU\USERDATA$\500004914\DOCUMENTS\VISUAL STUDIO 2017\PROJECTS\C++\ESB.DEMO2\ESB.DEMO2.UI\MAIN.CPP
\\APPSDATA3.FVTC.EDU\USERDATA$\500004914\DOCUMENTS\VISUAL STUDIO 2017\PROJECTS\C++\ESB.DEMO2\ESB.DEMO2.UI\DEBUG\VC141.PDB
\\APPSDATA3.FVTC.EDU\USERDATA$\500004914\DOCUMENTS\VISUAL STUDIO 2017\PROJECTS\C++\ESB.DEMO2\ESB.DEMO2.UI\DEBUG\MAIN.OBJ
